{
  "required": true,
  "package": "com.nhoryzon.mc.farmersdelight.mixin",
  "compatibilityLevel": "JAVA_16",
  "refmap": "farmers-delight-fabric-refmap.json",
  "mixins": [
    "AttachedStemBlockOnRichSoilFarmlandMixin",
    "CampfireBaleMixin",
    "ChickenEntityBreedingMixin",
    "CropBlockOnRichSoilFarmlandMixin",
    "DeadBushBlockOnRichSoilMixin",
    "EnchantmentHelperEnhancementMixin",
    "LivingEntityBackstabbingEnchantmentMixin",
    "LivingEntityComfortImmunitiesMixin",
    "LivingEntityKnivesKnockBackMixin",
    "LivingEntityOnUseItemFinishMixin",
    "PigEntityBreedingMixin",
    "PlantBlockOnRichSoilMixin",
    "StemBlockOnRichSoilFarmlandMixin",
    "accessors.PlayerExhaustionAccessorMixin"
  ],
  "injectors": {
    "defaultRequire": 1
  },
  "minVersion": "0.8"
}